Copyright 1986-2020 Xilinx, Inc. All Rights Reserved.
-------------------------------------------------------------------------------------------------------------------------------------------------------------
| Tool Version     : Vivado v.2020.1 (win64) Build 2902540 Wed May 27 19:54:49 MDT 2020
| Date             : Thu Sep 17 17:34:13 2020
| Host             : koichiro-PC running 64-bit Service Pack 1  (build 7601)
| Command          : report_power -file NewSLFirmware_power_routed.rpt -pb NewSLFirmware_power_summary_routed.pb -rpx NewSLFirmware_power_routed.rpx
| Design           : NewSLFirmware
| Device           : xc7k410tffg900-1
| Design State     : routed
| Grade            : commercial
| Process          : typical
| Characterization : Production
-------------------------------------------------------------------------------------------------------------------------------------------------------------

Power Report

Table of Contents
-----------------
1. Summary
1.1 On-Chip Components
1.2 Power Supply Summary
1.3 Confidence Level
2. Settings
2.1 Environment
2.2 Clock Constraints
3. Detailed Reports
3.1 By Hierarchy

1. Summary
----------

+--------------------------+--------------+
| Total On-Chip Power (W)  | 4.507        |
| Design Power Budget (W)  | Unspecified* |
| Power Budget Margin (W)  | NA           |
| Dynamic (W)              | 4.252        |
| Device Static (W)        | 0.255        |
| Effective TJA (C/W)      | 1.8          |
| Max Ambient (C)          | 77.1         |
| Junction Temperature (C) | 32.9         |
| Confidence Level         | Low          |
| Setting File             | ---          |
| Simulation Activity File | ---          |
| Design Nets Matched      | NA           |
+--------------------------+--------------+
* Specify Design Power Budget using, set_operating_conditions -design_power_budget <value in Watts>


1.1 On-Chip Components
----------------------

+-------------------------+-----------+----------+-----------+-----------------+
| On-Chip                 | Power (W) | Used     | Available | Utilization (%) |
+-------------------------+-----------+----------+-----------+-----------------+
| Clocks                  |     0.134 |       62 |       --- |             --- |
| Slice Logic             |     0.030 |    38742 |       --- |             --- |
|   LUT as Logic          |     0.027 |    13181 |    254200 |            5.19 |
|   Register              |     0.003 |    21055 |    508400 |            4.14 |
|   CARRY4                |    <0.001 |     1254 |     63550 |            1.97 |
|   F7/F8 Muxes           |    <0.001 |      517 |    254200 |            0.20 |
|   Others                |     0.000 |      790 |       --- |             --- |
|   LUT as Shift Register |     0.000 |        7 |     90600 |           <0.01 |
| Signals                 |     0.066 |    32688 |       --- |             --- |
| Block RAM               |     0.069 |       29 |       795 |            3.65 |
| MMCM                    |     0.209 |        2 |        10 |           20.00 |
| I/O                     |     0.131 |      368 |       500 |           73.60 |
| GTX                     |     3.612 |       12 |        16 |           75.00 |
| Static Power            |     0.255 |          |           |                 |
| Total                   |     4.507 |          |           |                 |
+-------------------------+-----------+----------+-----------+-----------------+


1.2 Power Supply Summary
------------------------

+-----------+-------------+-----------+-------------+------------+-------------+-------------+------------+
| Source    | Voltage (V) | Total (A) | Dynamic (A) | Static (A) | Powerup (A) | Budget (A)  | Margin (A) |
+-----------+-------------+-----------+-------------+------------+-------------+-------------+------------+
| Vccint    |       1.000 |     0.729 |       0.605 |      0.125 |       NA    | Unspecified | NA         |
| Vccaux    |       1.800 |     0.154 |       0.119 |      0.034 |       NA    | Unspecified | NA         |
| Vcco33    |       3.300 |     0.031 |       0.030 |      0.001 |       NA    | Unspecified | NA         |
| Vcco25    |       2.500 |     0.000 |       0.000 |      0.000 |       NA    | Unspecified | NA         |
| Vcco18    |       1.800 |     0.001 |       0.000 |      0.001 |       NA    | Unspecified | NA         |
| Vcco15    |       1.500 |     0.000 |       0.000 |      0.000 |       NA    | Unspecified | NA         |
| Vcco135   |       1.350 |     0.000 |       0.000 |      0.000 |       NA    | Unspecified | NA         |
| Vcco12    |       1.200 |     0.000 |       0.000 |      0.000 |       NA    | Unspecified | NA         |
| Vccaux_io |       1.800 |     0.000 |       0.000 |      0.000 |       NA    | Unspecified | NA         |
| Vccbram   |       1.000 |     0.007 |       0.002 |      0.004 |       NA    | Unspecified | NA         |
| MGTAVcc   |       1.000 |     2.073 |       2.062 |      0.011 |       NA    | Unspecified | NA         |
| MGTAVtt   |       1.200 |     1.066 |       1.056 |      0.010 |       NA    | Unspecified | NA         |
| MGTVccaux |       1.800 |     0.000 |       0.000 |      0.000 |       NA    | Unspecified | NA         |
| Vccadc    |       1.800 |     0.020 |       0.000 |      0.020 |       NA    | Unspecified | NA         |
+-----------+-------------+-----------+-------------+------------+-------------+-------------+------------+


1.3 Confidence Level
--------------------

+-----------------------------+------------+--------------------------------------------------------+------------------------------------------------------------------------------------------------------------+
| User Input Data             | Confidence | Details                                                | Action                                                                                                     |
+-----------------------------+------------+--------------------------------------------------------+------------------------------------------------------------------------------------------------------------+
| Design implementation state | High       | Design is routed                                       |                                                                                                            |
| Clock nodes activity        | High       | User specified more than 95% of clocks                 |                                                                                                            |
| I/O nodes activity          | Low        | More than 75% of inputs are missing user specification | Provide missing input activity with simulation results or by editing the "By Resource Type -> I/Os" view   |
| Internal nodes activity     | Medium     | User specified less than 25% of internal nodes         | Provide missing internal nodes activity with simulation results or by editing the "By Resource Type" views |
| Device models               | High       | Device models are Production                           |                                                                                                            |
|                             |            |                                                        |                                                                                                            |
| Overall confidence level    | Low        |                                                        |                                                                                                            |
+-----------------------------+------------+--------------------------------------------------------+------------------------------------------------------------------------------------------------------------+


2. Settings
-----------

2.1 Environment
---------------

+-----------------------+--------------------------+
| Ambient Temp (C)      | 25.0                     |
| ThetaJA (C/W)         | 1.8                      |
| Airflow (LFM)         | 250                      |
| Heat Sink             | medium (Medium Profile)  |
| ThetaSA (C/W)         | 3.3                      |
| Board Selection       | medium (10"x10")         |
| # of Board Layers     | 12to15 (12 to 15 Layers) |
| Board Temperature (C) | 25.0                     |
+-----------------------+--------------------------+


2.2 Clock Constraints
---------------------

+---------------------------------------------------------------------------------------------------------------------------------------+----------------------------------------------------------------------------------------------------------------------------------------+-----------------+
| Clock                                                                                                                                 | Domain                                                                                                                                 | Constraint (ns) |
+---------------------------------------------------------------------------------------------------------------------------------------+----------------------------------------------------------------------------------------------------------------------------------------+-----------------+
| FPGA_CLK                                                                                                                              | Clock_Generator/TTC_CLK                                                                                                                |            25.0 |
| FPGA_CLK                                                                                                                              | FPGA_CLK                                                                                                                               |            25.0 |
| FPGA_CLK40                                                                                                                            | Clock_Generator/CLK_40_VMEWRITE_out                                                                                                    |            25.0 |
| FPGA_CLK40                                                                                                                            | FPGA_CLK40                                                                                                                             |            25.0 |
| GTX_12lane/GTX_12lane_320MHz_support_i/GTX_6_4Gbps_12lane_init_i/inst/GTX_6_4Gbps_12lane_i/gt0_GTX_6_4Gbps_12lane_i/gtxe2_i/RXOUTCLK  | GTX_12lane/GTX_12lane_320MHz_support_i/GTX_6_4Gbps_12lane_init_i/inst/GTX_6_4Gbps_12lane_i/gt0_GTX_6_4Gbps_12lane_i/gt0_rxoutclk_out   |             6.3 |
| GTX_12lane/GTX_12lane_320MHz_support_i/GTX_6_4Gbps_12lane_init_i/inst/GTX_6_4Gbps_12lane_i/gt0_GTX_6_4Gbps_12lane_i/gtxe2_i/TXOUTCLK  | GTX_12lane/GTX_12lane_320MHz_support_i/GTX_6_4Gbps_12lane_init_i/inst/GTX_6_4Gbps_12lane_i/gt0_GTX_6_4Gbps_12lane_i/gt0_txoutclk_out   |             6.3 |
| GTX_12lane/GTX_12lane_320MHz_support_i/GTX_6_4Gbps_12lane_init_i/inst/GTX_6_4Gbps_12lane_i/gt10_GTX_6_4Gbps_12lane_i/gtxe2_i/RXOUTCLK | GTX_12lane/GTX_12lane_320MHz_support_i/GTX_6_4Gbps_12lane_init_i/inst/GTX_6_4Gbps_12lane_i/gt10_GTX_6_4Gbps_12lane_i/gt10_rxoutclk_out |             6.3 |
| GTX_12lane/GTX_12lane_320MHz_support_i/GTX_6_4Gbps_12lane_init_i/inst/GTX_6_4Gbps_12lane_i/gt10_GTX_6_4Gbps_12lane_i/gtxe2_i/TXOUTCLK | GTX_12lane/GTX_12lane_320MHz_support_i/GTX_6_4Gbps_12lane_init_i/inst/GTX_6_4Gbps_12lane_i/gt10_GTX_6_4Gbps_12lane_i/gt10_txoutclk_out |             6.3 |
| GTX_12lane/GTX_12lane_320MHz_support_i/GTX_6_4Gbps_12lane_init_i/inst/GTX_6_4Gbps_12lane_i/gt11_GTX_6_4Gbps_12lane_i/gtxe2_i/RXOUTCLK | GTX_12lane/GTX_12lane_320MHz_support_i/GTX_6_4Gbps_12lane_init_i/inst/GTX_6_4Gbps_12lane_i/gt11_GTX_6_4Gbps_12lane_i/gt11_rxoutclk_out |             6.3 |
| GTX_12lane/GTX_12lane_320MHz_support_i/GTX_6_4Gbps_12lane_init_i/inst/GTX_6_4Gbps_12lane_i/gt1_GTX_6_4Gbps_12lane_i/gtxe2_i/RXOUTCLK  | GTX_12lane/GTX_12lane_320MHz_support_i/GTX_6_4Gbps_12lane_init_i/inst/GTX_6_4Gbps_12lane_i/gt1_GTX_6_4Gbps_12lane_i/gt1_rxoutclk_out   |             6.3 |
| GTX_12lane/GTX_12lane_320MHz_support_i/GTX_6_4Gbps_12lane_init_i/inst/GTX_6_4Gbps_12lane_i/gt2_GTX_6_4Gbps_12lane_i/gtxe2_i/RXOUTCLK  | GTX_12lane/GTX_12lane_320MHz_support_i/GTX_6_4Gbps_12lane_init_i/inst/GTX_6_4Gbps_12lane_i/gt2_GTX_6_4Gbps_12lane_i/gt2_rxoutclk_out   |             6.3 |
| GTX_12lane/GTX_12lane_320MHz_support_i/GTX_6_4Gbps_12lane_init_i/inst/GTX_6_4Gbps_12lane_i/gt3_GTX_6_4Gbps_12lane_i/gtxe2_i/RXOUTCLK  | GTX_12lane/GTX_12lane_320MHz_support_i/GTX_6_4Gbps_12lane_init_i/inst/GTX_6_4Gbps_12lane_i/gt3_GTX_6_4Gbps_12lane_i/gt3_rxoutclk_out   |             6.3 |
| GTX_12lane/GTX_12lane_320MHz_support_i/GTX_6_4Gbps_12lane_init_i/inst/GTX_6_4Gbps_12lane_i/gt4_GTX_6_4Gbps_12lane_i/gtxe2_i/RXOUTCLK  | GTX_12lane/GTX_12lane_320MHz_support_i/GTX_6_4Gbps_12lane_init_i/inst/GTX_6_4Gbps_12lane_i/gt4_GTX_6_4Gbps_12lane_i/gt4_rxoutclk_out   |             6.3 |
| GTX_12lane/GTX_12lane_320MHz_support_i/GTX_6_4Gbps_12lane_init_i/inst/GTX_6_4Gbps_12lane_i/gt5_GTX_6_4Gbps_12lane_i/gtxe2_i/RXOUTCLK  | GTX_12lane/GTX_12lane_320MHz_support_i/GTX_6_4Gbps_12lane_init_i/inst/GTX_6_4Gbps_12lane_i/gt5_GTX_6_4Gbps_12lane_i/gt5_rxoutclk_out   |             6.3 |
| GTX_12lane/GTX_12lane_320MHz_support_i/GTX_6_4Gbps_12lane_init_i/inst/GTX_6_4Gbps_12lane_i/gt6_GTX_6_4Gbps_12lane_i/gtxe2_i/RXOUTCLK  | GTX_12lane/GTX_12lane_320MHz_support_i/GTX_6_4Gbps_12lane_init_i/inst/GTX_6_4Gbps_12lane_i/gt6_GTX_6_4Gbps_12lane_i/gt6_rxoutclk_out   |             6.3 |
| GTX_12lane/GTX_12lane_320MHz_support_i/GTX_6_4Gbps_12lane_init_i/inst/GTX_6_4Gbps_12lane_i/gt7_GTX_6_4Gbps_12lane_i/gtxe2_i/RXOUTCLK  | GTX_12lane/GTX_12lane_320MHz_support_i/GTX_6_4Gbps_12lane_init_i/inst/GTX_6_4Gbps_12lane_i/gt7_GTX_6_4Gbps_12lane_i/gt7_rxoutclk_out   |             6.3 |
| GTX_12lane/GTX_12lane_320MHz_support_i/GTX_6_4Gbps_12lane_init_i/inst/GTX_6_4Gbps_12lane_i/gt8_GTX_6_4Gbps_12lane_i/gtxe2_i/RXOUTCLK  | GTX_12lane/GTX_12lane_320MHz_support_i/GTX_6_4Gbps_12lane_init_i/inst/GTX_6_4Gbps_12lane_i/gt8_GTX_6_4Gbps_12lane_i/gt8_rxoutclk_out   |             6.3 |
| GTX_12lane/GTX_12lane_320MHz_support_i/GTX_6_4Gbps_12lane_init_i/inst/GTX_6_4Gbps_12lane_i/gt9_GTX_6_4Gbps_12lane_i/gtxe2_i/RXOUTCLK  | GTX_12lane/GTX_12lane_320MHz_support_i/GTX_6_4Gbps_12lane_init_i/inst/GTX_6_4Gbps_12lane_i/gt9_GTX_6_4Gbps_12lane_i/gt9_rxoutclk_out   |             6.3 |
| Q2_CLK0_GTREFCLK_PAD_P_IN                                                                                                             | Q2_CLK0_GTREFCLK_PAD_P_IN                                                                                                              |             6.3 |
| clk160_dcm40_to_160                                                                                                                   | Clock_Generator/dcm40_to_160/inst/clk160_dcm40_to_160                                                                                  |             6.2 |
| clk40_0_dcm40_to_4phases                                                                                                              | Clock_Generator/dcm40_to_4phases/inst/clk40_0_dcm40_to_4phases                                                                         |            25.0 |
| clk40_1_dcm40_to_4phases                                                                                                              | Clock_Generator/dcm40_to_4phases/inst/clk40_1_dcm40_to_4phases                                                                         |            25.0 |
| clk40_2_dcm40_to_4phases                                                                                                              | Clock_Generator/dcm40_to_4phases/inst/clk40_2_dcm40_to_4phases                                                                         |            25.0 |
| clk40_3_dcm40_to_4phases                                                                                                              | Clock_Generator/dcm40_to_4phases/inst/clk40_3_dcm40_to_4phases                                                                         |            25.0 |
| clkfbout_dcm40_to_160                                                                                                                 | Clock_Generator/dcm40_to_160/inst/clkfbout_dcm40_to_160                                                                                |            25.0 |
| clkfbout_dcm40_to_4phases                                                                                                             | Clock_Generator/dcm40_to_4phases/inst/clkfbout_dcm40_to_4phases                                                                        |            25.0 |
+---------------------------------------------------------------------------------------------------------------------------------------+----------------------------------------------------------------------------------------------------------------------------------------+-----------------+


3. Detailed Reports
-------------------

3.1 By Hierarchy
----------------

+---------------------------------+-----------+
| Name                            | Power (W) |
+---------------------------------+-----------+
| NewSLFirmware                   |     4.252 |
|   Clock_Generator               |     0.211 |
|     dcm40_to_160                |     0.104 |
|       inst                      |     0.104 |
|     dcm40_to_4phases            |     0.107 |
|       inst                      |     0.107 |
|   Converter                     |     0.002 |
|   GLink_Delay                   |     0.021 |
|     Delay_glink0                |     0.002 |
|       delay_mem_glink           |     0.001 |
|     Delay_glink1                |     0.001 |
|       delay_mem_glink           |     0.001 |
|     Delay_glink10               |     0.001 |
|       delay_mem_glink           |     0.001 |
|     Delay_glink11               |     0.001 |
|       delay_mem_glink           |     0.001 |
|     Delay_glink12               |     0.001 |
|       delay_mem_glink           |     0.001 |
|     Delay_glink13               |     0.001 |
|       delay_mem_glink           |     0.001 |
|     Delay_glink2                |     0.001 |
|       delay_mem_glink           |     0.001 |
|     Delay_glink3                |     0.001 |
|       delay_mem_glink           |     0.001 |
|     Delay_glink4                |     0.001 |
|       delay_mem_glink           |     0.001 |
|     Delay_glink5                |     0.001 |
|       delay_mem_glink           |     0.001 |
|     Delay_glink6                |     0.001 |
|       delay_mem_glink           |     0.001 |
|     Delay_glink7                |     0.001 |
|       delay_mem_glink           |     0.001 |
|     Delay_glink8                |     0.001 |
|       delay_mem_glink           |     0.001 |
|     Delay_glink9                |     0.001 |
|       delay_mem_glink           |     0.001 |
|   GLink_Monitor                 |     0.004 |
|   GLink_PhaseAlign              |     0.081 |
|     GLink0_IFD                  |     0.006 |
|     GLink10_IFD                 |     0.006 |
|     GLink11_IFD                 |     0.006 |
|     GLink12_IFD                 |     0.006 |
|     GLink13_IFD                 |     0.006 |
|     GLink1_IFD                  |     0.006 |
|     GLink2_IFD                  |     0.006 |
|     GLink3_IFD                  |     0.006 |
|     GLink4_IFD                  |     0.006 |
|     GLink5_IFD                  |     0.006 |
|     GLink6_IFD                  |     0.006 |
|     GLink7_IFD                  |     0.006 |
|     GLink8_IFD                  |     0.006 |
|     GLink9_IFD                  |     0.006 |
|   GTX_12lane                    |     3.651 |
|     GTX_12lane_320MHz_support_i |     3.646 |
|       GTX_6_4Gbps_12lane_init_i |     3.644 |
|       gt_usrclk_source          |     0.002 |
|     GTX_Error_Scaler            |     0.004 |
|   GTX_Delay                     |     0.072 |
|     Delay_gtx0                  |     0.008 |
|       delay_mem                 |     0.006 |
|     Delay_gtx1                  |     0.008 |
|       delay_mem                 |     0.005 |
|     Delay_gtx10                 |     0.002 |
|     Delay_gtx11                 |     0.002 |
|     Delay_gtx2                  |     0.008 |
|       delay_mem                 |     0.006 |
|     Delay_gtx3                  |     0.008 |
|       delay_mem                 |     0.005 |
|     Delay_gtx4                  |     0.008 |
|       delay_mem                 |     0.005 |
|     Delay_gtx5                  |     0.008 |
|       delay_mem                 |     0.006 |
|     Delay_gtx6                  |     0.008 |
|       delay_mem                 |     0.005 |
|     Delay_gtx7                  |     0.008 |
|       delay_mem                 |     0.006 |
|     Delay_gtx8                  |     0.002 |
|     Delay_gtx9                  |     0.002 |
|   GTX_RX                        |     0.061 |
|   GTX_TX                        |     0.007 |
|   Monitoring                    |     0.005 |
|     monitoring_fifo             |     0.005 |
|       U0                        |     0.005 |
|   TTC_Delay                     |     0.005 |
|     Delay_BCR                   |     0.001 |
|       delay_single              |     0.001 |
|     Delay_ECR                   |     0.001 |
|       delay_single              |     0.001 |
|     Delay_L1A                   |     0.001 |
|       delay_single              |     0.001 |
|     Delay_trig_BCR              |     0.001 |
|       delay_single              |     0.001 |
|   vme                           |     0.019 |
+---------------------------------+-----------+


